#The word of "Default" must not be removed
Default
CountryRegion=5
CountryRegionABand=7
CountryCode=US
AutoChannelSkipList=
DBDC_MODE=1
IcapMode=0
BssidNum=1
SSID=
SSID1=MT7615E.1.2G
SSID2=
SSID3=
SSID4=
SSID5=
SSID6=
SSID7=
SSID8=
SSID9=
SSID10=
SSID11=
SSID12=
SSID13=
SSID14=
SSID15=
SSID16=
RRMEnable=0
FtSupport=
ChannelGrp=
WirelessMode=9
FixedTxMode=HT
EthConvertMode=dongle
TxRate=0
Channel=6
BasicRate=15
BeaconPeriod=100
DtimPeriod=1
TxPower=100
LinkTestSupport=0
ThermalRecal=0
PowerUpCckOfdm=0:0:0:0:0:0:0
PowerUpHT20=0:0:0:0:0:0:0
PowerUpHT40=0:0:0:0:0:0:0
PowerUpVHT20=0:0:0:0:0:0:0
PowerUpVHT40=0:0:0:0:0:0:0
PowerUpVHT80=0:0:0:0:0:0:0
PowerUpVHT160=0:0:0:0:0:0:0
SKUenable=0
PERCENTAGEenable=1
BFBACKOFFenable=0
CalCacheApply=0
DisableOLBC=0
BGProtection=0
TxAntenna=
RxAntenna=
TxPreamble=1
RTSThreshold=2347
FragThreshold=2346
TxBurst=1
PktAggregate=1
AutoProvisionEn=0
FreqDelta=0
TurboRate=0
WmmCapable=1
APAifsn=3;7;1;1
APCwmin=4;4;3;2
APCwmax=6;10;4;3
APTxop=0;0;94;47
APACM=0;0;0;0
BSSAifsn=3;7;2;2
BSSCwmin=4;4;3;2
BSSCwmax=10;10;4;3
BSSTxop=0;0;94;47
BSSACM=0;0;0;0
AckPolicy=0;0;0;0
APSDCapable=0
DLSCapable=0
NoForwarding=0
NoForwardingBTNBSSID=0
HideSSID=0
ShortSlot=1
AutoChannelSelect=3
IEEE8021X=0
IEEE80211H=1
CarrierDetect=0
ITxBfEn=0
PreAntSwitch=
PhyRateLimit=0
DebugFlags=0
ETxBfEnCond=0
MUTxRxEnable=0
ITxBfTimeout=0
ETxBfTimeout=0
ETxBfNoncompress=0
ETxBfIncapable=0
FineAGC=0
StreamMode=0
StreamModeMac0=
StreamModeMac1=
StreamModeMac2=
StreamModeMac3=
CSPeriod=6
RDRegion=
StationKeepAlive=0
DfsCalibration=0
DfsEnable=0
DfsApplyStopWifi=0
DfsFalseAlarmPrevent=1
DfsZeroWait=0
DfsZeroWaitCacTime=255
DfsDedicatedZeroWait=0
DfsTPDutyRatio=0
DfsLowerLimit=0
DfsUpperLimit=0
DfsOutdoor=0
SymRoundFromCfg=0
BusyIdleFromCfg=0
DfsRssiHighFromCfg=0
DfsRssiLowFromCfg=0
DFSParamFromConfig=0
FCCParamCh0=
FCCParamCh1=
FCCParamCh2=
FCCParamCh3=
CEParamCh0=
CEParamCh1=
CEParamCh2=
CEParamCh3=
JAPParamCh0=
JAPParamCh1=
JAPParamCh2=
JAPParamCh3=
JAPW53ParamCh0=
JAPW53ParamCh1=
JAPW53ParamCh2=
JAPW53ParamCh3=
FixDfsLimit=0
LongPulseRadarTh=0
AvgRssiReq=0
DFS_R66=0
BlockCh=
EzEnable=
EzConfStatus=
EzGroupID=
EzGenGroupID=
EzOpenGroupID=
EzPushBW=
EzDefaultSsid=
EzDefaultPmk=
EzDefaultPmkValid=
EzDefaultSettings=
ManConf=
FtMdId1=
FtMdId2=
MacAddress=
MacAddress1=
RegroupSupport=
RegroupPeriodicity=
EtherTrafficBand=
ApMWDS=
ApCliMWDS=
ForceRoamSupport=
GreenAP=0
PreAuth=0
AuthMode=OPEN
EncrypType=NONE
WapiPsk1=
WapiPsk2=
WapiPsk3=
WapiPsk4=
WapiPsk5=
WapiPsk6=
WapiPsk7=
WapiPsk8=
WapiPsk9=
WapiPsk10=
WapiPsk11=
WapiPsk12=
WapiPsk13=
WapiPsk14=
WapiPsk15=
WapiPsk16=
WapiPskType=
Wapiifname=
WapiAsCertPath=
WapiUserCertPath=
WapiAsIpAddr=
WapiAsPort=
RekeyMethod=DISABLE
RekeyInterval=3600
PMKCachePeriod=10
MeshAutoLink=0
MeshAuthMode=
MeshEncrypType=
MeshDefaultkey=0
MeshWEPKEY=
MeshWPAKEY=
MeshId=
WPAPSK=
WPAPSK1=12345678
WPAPSK2=
WPAPSK3=
WPAPSK4=
WPAPSK5=
WPAPSK6=
WPAPSK7=
WPAPSK8=
WPAPSK9=
WPAPSK10=
WPAPSK11=
WPAPSK12=
WPAPSK13=
WPAPSK14=
WPAPSK15=
WPAPSK16=
DefaultKeyID=1
Key1Type=0
Key1Str=
Key1Str1=
Key1Str2=
Key1Str3=
Key1Str4=
Key1Str5=
Key1Str6=
Key1Str7=
Key1Str8=
Key1Str9=
Key1Str10=
Key1Str11=
Key1Str12=
Key1Str13=
Key1Str14=
Key1Str15=
Key1Str16=
Key2Type=0
Key2Str=
Key2Str1=
Key2Str2=
Key2Str3=
Key2Str4=
Key2Str5=
Key2Str6=
Key2Str7=
Key2Str8=
Key2Str9=
Key2Str10=
Key2Str11=
Key2Str12=
Key2Str13=
Key2Str14=
Key2Str15=
Key2Str16=
Key3Type=0
Key3Str=
Key3Str1=
Key3Str2=
Key3Str3=
Key3Str4=
Key3Str5=
Key3Str6=
Key3Str7=
Key3Str8=
Key3Str9=
Key3Str10=
Key3Str11=
Key3Str12=
Key3Str13=
Key3Str14=
Key3Str15=
Key3Str16=
Key4Type=0
Key4Str=
Key4Str1=
Key4Str2=
Key4Str3=
Key4Str4=
Key4Str5=
Key4Str6=
Key4Str7=
Key4Str8=
Key4Str9=
Key4Str10=
Key4Str11=
Key4Str12=
Key4Str13=
Key4Str14=
Key4Str15=
Key4Str16=
HSCounter=0
HT_HTC=1
HT_RDG=1
HT_LinkAdapt=0
HT_OpMode=0
HT_MpduDensity=5
HT_EXTCHA=1
HT_BW=1
HT_AutoBA=1
HT_BADecline=0
HT_AMSDU=1
HT_BAWinSize=64
HT_GI=1
HT_STBC=1
HT_MCS=33
HT_TxStream=2
HT_RxStream=2
HT_PROTECT=1
HT_DisallowTKIP=1
HT_BSSCoexistence=0
HT_LDPC=1
VHT_BW=0
VHT_Sec80_Channel=0
VHT_STBC=1
VHT_SGI=1
VHT_BW_SIGNAL=0
VHT_LDPC=1
G_BAND_256QAM=1
WscConfMode=0
WscConfStatus=2
WCNTest=0
AccessPolicy0=0
AccessControlList0=
AccessPolicy1=0
AccessControlList1=
AccessPolicy2=0
AccessControlList2=
AccessPolicy3=0
AccessControlList3=
AccessPolicy4=0
AccessControlList4=
AccessPolicy5=0
AccessControlList5=
AccessPolicy6=0
AccessControlList6=
AccessPolicy7=0
AccessControlList7=
AccessPolicy8=0
AccessControlList8=
AccessPolicy9=0
AccessControlList9=
AccessPolicy10=0
AccessControlList10=
AccessPolicy11=0
AccessControlList11=
AccessPolicy12=0
AccessControlList12=
AccessPolicy13=0
AccessControlList13=
AccessPolicy14=0
AccessControlList14=
AccessPolicy15=0
AccessControlList15=
WdsEnable=0
WdsPhyMode=
WdsEncrypType=NONE
WdsList=
Wds0Key=
Wds1Key=
Wds2Key=
Wds3Key=
RADIUS_Server=0
RADIUS_Port=1812
RADIUS_Key1=
RADIUS_Key2=
RADIUS_Key3=
RADIUS_Key4=
RADIUS_Key5=
RADIUS_Key6=
RADIUS_Key7=
RADIUS_Key8=
RADIUS_Key9=
RADIUS_Key10=
RADIUS_Key11=
RADIUS_Key12=
RADIUS_Key13=
RADIUS_Key14=
RADIUS_Key15=
RADIUS_Key16=
RADIUS_Acct_Server=
RADIUS_Acct_Port=1813
RADIUS_Acct_Key=
own_ip_addr=192.168.1.1
Ethifname=
EAPifname=br-lan
PreAuthifname=br-lan
session_timeout_interval=0
idle_timeout_interval=0
WiFiTest=0
TGnWifiTest=0
ApCliEzEnable=
ApCliEzConfStatus=
ApCliEzGroupID=
ApCliEzGenGroupID=
ApCliEzOpenGroupID=
ApCliEzRssiThreshold=
ApCliHideSSID=
ApCliEnable=1
ApCliSsid=
ApCliBssid=
ApCliAuthMode=
ApCliEncrypType=
ApCliWPAPSK=
ApCliDefaultKeyID=
ApCliKey1Type=
ApCliKey1Str=
ApCliKey2Type=
ApCliKey2Str=
ApCliKey3Type=
ApCliKey3Str=
ApCliKey4Type=
ApCliKey4Str=
MACRepeaterEn=
MACRepeaterOuiMode=2
ApCliWirelessMode=9
ApCliWPAPSK1=
ApCliKey1Str1=
ApCliKey2Str1=
ApCliKey3Str1=
ApCliKey4Str1=
EfuseBufferMode=0
E2pAccessMode=1
PMFMFPC=0
PMFMFPR=0
PMFSHA256=0
RadioOn=1
BW_Enable=0
BW_Root=0
BW_Priority=
BW_Guarantee_Rate=
BW_Maximum_Rate=
VOW_BW_Ctrl=
VOW_Airtime_Fairness_En=1
VOW_RX_En=
VOW_Refill_Period=
VOW_Sta_VO_DWRR_Quantum=
VOW_Sta_VI_DWRR_Quantum=
VOW_Sta_BE_DWRR_Quantum=
VOW_Sta_BK_DWRR_Quantum=
VOW_WMM_Search_Rule_Band0=
VOW_WMM_Search_Rule_Band1=
VOW_Sta_DWRR_Max_Wait_Time=
VOW_Group_DWRR_Max_Wait_Time=
VOW_Group_Min_Rate=
VOW_Group_Max_Rate=
VOW_Group_Min_Ratio=
VOW_Group_Max_Ratio=
VOW_Airtime_Ctrl_En=
VOW_Rate_Ctrl_En=
VOW_Group_Min_Rate_Bucket_Size=
VOW_Group_Max_Rate_Bucket_Size=
VOW_Group_Min_Airtime_Bucket_Size=
VOW_Group_Max_Airtime_Bucket_Size=
VOW_Group_Backlog=
VOW_Group_Max_Wait_Time=
VOW_Group_DWRR_Quantum=
VOW_WATF_Enable=
VOW_WATF_Q_LV0=
VOW_WATF_Q_LV1=
VOW_WATF_Q_LV2=
VOW_WATF_Q_LV3=
VOW_WATF_MAC_LV0=
VOW_WATF_MAC_LV1=
VOW_WATF_MAC_LV2=
VOW_WATF_MAC_LV3=
VOW_STA_FRR_QUANTUM=
RED_Enable=1
CP_SUPPORT=2
BgndScanSkipCh=
EDCCAEnable=1
BandSteering=0
BndStrgBssIdx=
RadioLinkSelection=0
RoamingEnhance=0
BandNoBf=0
IgmpSnEnable=0
